{
  "board": {
    "3dviewports": [],
    "design_settings": {
      "defaults": {
        "apply_defaults_to_fp_fields": false,
        "apply_defaults_to_fp_shapes": false,
        "apply_defaults_to_fp_text": false,
        "board_outline_line_width": 0.1,
        "copper_line_width": 0.2,
        "copper_text_italic": false,
        "copper_text_size_h": 1.5,
        "copper_text_size_v": 1.5,
        "copper_text_thickness": 0.3,
        "copper_text_upright": false,
        "courtyard_line_width": 0.05,
        "dimension_precision": 4,
        "dimension_units": 3,
        "dimensions": {
          "arrow_length": 1270000,
          "extension_offset": 500000,
          "keep_text_aligned": true,
          "suppress_zeroes": false,
          "text_position": 0,
          "units_format": 1
        },
        "fab_line_width": 0.1,
        "fab_text_italic": false,
        "fab_text_size_h": 1.0,
        "fab_text_size_v": 1.0,
        "fab_text_thickness": 0.15,
        "fab_text_upright": false,
        "other_line_width": 0.15,
        "other_text_italic": false,
        "other_text_size_h": 1.0,
        "other_text_size_v": 1.0,
        "other_text_thickness": 0.15,
        "other_text_upright": false,
        "pads": {
          "drill": 0.0,
          "height": 5.0,
          "width": 5.0
        },
        "silk_line_width": 0.15,
        "silk_text_italic": false,
        "silk_text_size_h": 1.0,
        "silk_text_size_v": 1.0,
        "silk_text_thickness": 0.15,
        "silk_text_upright": false,
        "zones": {
          "min_clearance": 0.2
        }
      },
      "diff_pair_dimensions": [
        {
          "gap": 0.0,
          "via_gap": 0.0,
          "width": 0.0
        },
        {
          "gap": 0.2,
          "via_gap": 0.2,
          "width": 0.2
        }
      ],
      "drc_exclusions": [
        "copper_edge_clearance|126725000|104725000|9e22a857-712e-4f44-a719-5caff5ef49c4|8868e4d0-ec9f-4688-b69d-f7536f5d5d1d",
        "copper_edge_clearance|126725000|113375000|ec9be9d4-12bf-46fc-aa21-ae68704b94bf|326d00ae-ee7b-4ae4-8552-063c51158eea",
        "copper_edge_clearance|126725000|122525000|7244b1c1-01c2-425b-911e-e42f99f121c4|de30c370-7691-460d-824b-3ec44681f33a",
        "copper_edge_clearance|126725000|131175000|027727bf-8b99-4cf2-8d3e-9281ec08364b|86880879-ef38-4463-92d1-a4d2bd3e295d",
        "copper_edge_clearance|126725000|140175000|a4090bfb-3758-4a88-aee9-f145948ae5c0|597759a5-dd74-4411-8a24-2239e09fb3f1",
        "copper_edge_clearance|126725000|148825000|2539b288-4807-42c7-86a1-f0c76dadb294|f6f3b6df-7418-4ece-a101-141296890375",
        "copper_edge_clearance|141036500|148865000|c5cb1b84-0a6a-422d-851e-d099779ade12|a7c1d52b-474a-411a-b87c-0657d16b3033",
        "copper_edge_clearance|149686500|148865000|a6723d30-8af8-407a-aac1-019befccab64|947fcfd2-8f0f-4b7e-9eca-cd80b469e333",
        "courtyards_overlap|124337501|104275001|29a2b6d9-cd7d-439e-8d3f-255b47335a72|a130f0ed-a831-49cb-8948-07cacddb99c5",
        "courtyards_overlap|124337501|122075001|7326af58-d626-48cb-9f83-c70b811e28c7|9add8f0b-61df-47cd-8593-600bb08e51ce",
        "courtyards_overlap|124337501|139725001|74c6c647-a9da-4d10-8a51-c155145d9970|91931db7-758e-4167-a864-2c8690383698",
        "courtyards_overlap|124840001|81972785|0127afda-c596-4e19-9697-383c46e66047|dc08e118-e955-46fd-aab4-2bf89c0c17a6",
        "courtyards_overlap|142781501|147575001|0722b7a7-4223-4dec-814a-d692609dcfe3|b6edb20b-29a4-43b7-8bfb-3e178a3a1562",
        "courtyards_overlap|159287501|102650001|0ee01c0f-35f1-4cf5-87c4-8c393bddab91|d996d88e-0c12-46ba-acfe-5ab29e18d898",
        "hole_clearance|126725000|104725000|8868e4d0-ec9f-4688-b69d-f7536f5d5d1d|9e22a857-712e-4f44-a719-5caff5ef49c4",
        "hole_clearance|126725000|113375000|326d00ae-ee7b-4ae4-8552-063c51158eea|ec9be9d4-12bf-46fc-aa21-ae68704b94bf",
        "hole_clearance|126725000|122525000|de30c370-7691-460d-824b-3ec44681f33a|7244b1c1-01c2-425b-911e-e42f99f121c4",
        "hole_clearance|126725000|131175000|86880879-ef38-4463-92d1-a4d2bd3e295d|027727bf-8b99-4cf2-8d3e-9281ec08364b",
        "hole_clearance|126725000|140175000|a4090bfb-3758-4a88-aee9-f145948ae5c0|597759a5-dd74-4411-8a24-2239e09fb3f1",
        "hole_clearance|126725000|148825000|2539b288-4807-42c7-86a1-f0c76dadb294|f6f3b6df-7418-4ece-a101-141296890375",
        "hole_clearance|141036500|148865000|a7c1d52b-474a-411a-b87c-0657d16b3033|c5cb1b84-0a6a-422d-851e-d099779ade12",
        "hole_clearance|149686500|148865000|947fcfd2-8f0f-4b7e-9eca-cd80b469e333|a6723d30-8af8-407a-aac1-019befccab64",
        "lib_footprint_mismatch|123000000|153000000|a5a6e0ae-3ada-424f-b9eb-01dcc00f9324|00000000-0000-0000-0000-000000000000",
        "lib_footprint_mismatch|123390000|111797500|29a2b6d9-cd7d-439e-8d3f-255b47335a72|00000000-0000-0000-0000-000000000000",
        "lib_footprint_mismatch|123390000|129597500|7326af58-d626-48cb-9f83-c70b811e28c7|00000000-0000-0000-0000-000000000000",
        "lib_footprint_mismatch|123390000|147247500|91931db7-758e-4167-a864-2c8690383698|00000000-0000-0000-0000-000000000000",
        "lib_footprint_mismatch|125225000|100150000|2237b6d2-9e3b-449d-ba79-76057da968ad|00000000-0000-0000-0000-000000000000",
        "lib_footprint_mismatch|125225000|117950000|cf24183d-a9a5-4cea-80fb-dab2fa9705fb|00000000-0000-0000-0000-000000000000",
        "lib_footprint_mismatch|125225000|135600000|eab95992-c12a-409c-89d1-822859b5c40c|00000000-0000-0000-0000-000000000000",
        "lib_footprint_mismatch|126525000|126850000|9add8f0b-61df-47cd-8593-600bb08e51ce|00000000-0000-0000-0000-000000000000",
        "lib_footprint_mismatch|126525000|144500000|74c6c647-a9da-4d10-8a51-c155145d9970|00000000-0000-0000-0000-000000000000",
        "lib_footprint_mismatch|126925000|109050000|a130f0ed-a831-49cb-8948-07cacddb99c5|00000000-0000-0000-0000-000000000000",
        "lib_footprint_mismatch|135825000|84300000|54c52c96-7791-42fe-a485-935de3a21919|00000000-0000-0000-0000-000000000000",
        "lib_footprint_mismatch|136861500|150690000|83ca2e0c-ba9f-4fcc-9066-483aa8b0b288|00000000-0000-0000-0000-000000000000",
        "lib_footprint_mismatch|143307423|125951792|5ef32acd-273e-4140-b33e-6af0614817ca|00000000-0000-0000-0000-000000000000",
        "lib_footprint_mismatch|145361500|148665000|b6edb20b-29a4-43b7-8bfb-3e178a3a1562|00000000-0000-0000-0000-000000000000",
        "lib_footprint_mismatch|147218500|108790000|f36ebb0e-dfc9-487b-a177-29ada7231a5a|00000000-0000-0000-0000-000000000000",
        "lib_footprint_mismatch|147525000|86035000|a3bcffc9-bced-4114-b46c-01f725fe2a99|00000000-0000-0000-0000-000000000000",
        "lib_footprint_mismatch|148109000|152200000|0722b7a7-4223-4dec-814a-d692609dcfe3|00000000-0000-0000-0000-000000000000",
        "lib_footprint_mismatch|148718719|140746966|be1e7547-1a3f-4112-abb9-d0b314a88cd4|00000000-0000-0000-0000-000000000000",
        "lib_footprint_mismatch|148718719|143286966|3ec51268-580c-4959-aa32-c6305fe964e4|00000000-0000-0000-0000-000000000000",
        "lib_footprint_mismatch|149417343|116991528|884e7e64-12fa-4621-9546-eda31ca4ece7|00000000-0000-0000-0000-000000000000",
        "lib_footprint_mismatch|153798719|140746966|3f8d1721-faf1-40b6-9a57-15112b672d9d|00000000-0000-0000-0000-000000000000",
        "lib_footprint_mismatch|153798719|143286966|d13d13ec-0a62-4d52-ad79-538b63e0756e|00000000-0000-0000-0000-000000000000",
        "lib_footprint_mismatch|159425000|84300000|6128358a-0000-4c37-b836-8e75295c520f|00000000-0000-0000-0000-000000000000",
        "lib_footprint_mismatch|161000000|153000000|eb25d8da-8056-4cf9-a1a1-711eb66c2e62|00000000-0000-0000-0000-000000000000",
        "lib_footprint_mismatch|162002500|117530000|3453fb20-a284-4a3c-b970-18a91630f49d|00000000-0000-0000-0000-000000000000",
        "lib_footprint_mismatch|162002500|139680000|aaa217f5-83f3-4444-9ca2-ecc709f1337a|00000000-0000-0000-0000-000000000000",
        "lib_footprint_mismatch|162002500|95380000|d996d88e-0c12-46ba-acfe-5ab29e18d898|00000000-0000-0000-0000-000000000000",
        "lib_footprint_mismatch|165500000|128600000|ae5aec21-9955-4a75-8b2d-e4efb49e7b2e|00000000-0000-0000-0000-000000000000",
        "lib_footprint_mismatch|165750000|106450000|a0f35038-4be6-4d68-afe5-42288a9698fd|00000000-0000-0000-0000-000000000000",
        "lib_footprint_mismatch|165750000|150750000|3771d4a5-db1d-416e-a440-01e038eb1802|00000000-0000-0000-0000-000000000000",
        "lib_footprint_mismatch|168000000|82000000|ae9693e1-0ee1-4ebe-805f-70fe694ee9a4|00000000-0000-0000-0000-000000000000",
        "starved_thermal|127400000|106075000|75eb1c67-5fe0-4306-867d-513df422ff60|564863b9-f2f7-4730-92df-37d62882bd7e|B.Cu",
        "starved_thermal|127400000|123875000|75eb1c67-5fe0-4306-867d-513df422ff60|94551709-98e3-495e-bdd9-bafc3da77e3c|B.Cu",
        "starved_thermal|127400000|141525000|75eb1c67-5fe0-4306-867d-513df422ff60|ea9e1f04-3bdf-4456-8f9e-7f40e2afcc8e|B.Cu",
        "starved_thermal|128155000|105050000|75eb1c67-5fe0-4306-867d-513df422ff60|975c8488-6da4-4f62-863b-c15da0b6eda0|B.Cu",
        "starved_thermal|128155000|122850000|75eb1c67-5fe0-4306-867d-513df422ff60|d558e61c-5100-4713-a715-82fd6a0b0ac2|B.Cu",
        "starved_thermal|128155000|140500000|75eb1c67-5fe0-4306-867d-513df422ff60|d3111dae-b833-401e-8158-be239faddc65|B.Cu"
      ],
      "meta": {
        "version": 2
      },
      "rule_severities": {
        "annular_width": "error",
        "clearance": "error",
        "connection_width": "warning",
        "copper_edge_clearance": "error",
        "copper_sliver": "warning",
        "courtyards_overlap": "warning",
        "diff_pair_gap_out_of_range": "error",
        "diff_pair_uncoupled_length_too_long": "error",
        "drill_out_of_range": "error",
        "duplicate_footprints": "warning",
        "extra_footprint": "warning",
        "footprint": "error",
        "footprint_symbol_mismatch": "warning",
        "footprint_type_mismatch": "ignore",
        "hole_clearance": "error",
        "hole_near_hole": "error",
        "holes_co_located": "warning",
        "invalid_outline": "error",
        "isolated_copper": "warning",
        "item_on_disabled_layer": "error",
        "items_not_allowed": "error",
        "length_out_of_range": "error",
        "lib_footprint_issues": "warning",
        "lib_footprint_mismatch": "warning",
        "malformed_courtyard": "error",
        "microvia_drill_out_of_range": "error",
        "missing_courtyard": "ignore",
        "missing_footprint": "warning",
        "net_conflict": "warning",
        "npth_inside_courtyard": "ignore",
        "padstack": "warning",
        "pth_inside_courtyard": "ignore",
        "shorting_items": "error",
        "silk_edge_clearance": "ignore",
        "silk_over_copper": "ignore",
        "silk_overlap": "ignore",
        "skew_out_of_range": "error",
        "solder_mask_bridge": "ignore",
        "starved_thermal": "warning",
        "text_height": "ignore",
        "text_thickness": "ignore",
        "through_hole_pad_without_hole": "error",
        "too_many_vias": "error",
        "track_dangling": "warning",
        "track_width": "error",
        "tracks_crossing": "error",
        "unconnected_items": "error",
        "unresolved_variable": "error",
        "via_dangling": "warning",
        "zones_intersect": "error"
      },
      "rules": {
        "max_error": 0.005,
        "min_clearance": 0.2,
        "min_connection": 0.2,
        "min_copper_edge_clearance": 0.2,
        "min_hole_clearance": 0.2,
        "min_hole_to_hole": 0.2,
        "min_microvia_diameter": 0.2,
        "min_microvia_drill": 0.1,
        "min_resolved_spokes": 2,
        "min_silk_clearance": 0.0,
        "min_text_height": 0.8,
        "min_text_thickness": 0.08,
        "min_through_hole_diameter": 0.1,
        "min_track_width": 0.2,
        "min_via_annular_width": 0.1,
        "min_via_diameter": 0.2,
        "solder_mask_clearance": 0.0,
        "solder_mask_min_width": 0.0,
        "solder_mask_to_copper_clearance": 0.0,
        "use_height_for_length_calcs": true
      },
      "teardrop_options": [
        {
          "td_onpadsmd": true,
          "td_onroundshapesonly": false,
          "td_ontrackend": false,
          "td_onviapad": true
        }
      ],
      "teardrop_parameters": [
        {
          "td_allow_use_two_tracks": true,
          "td_curve_segcount": 0,
          "td_height_ratio": 1.0,
          "td_length_ratio": 1.0,
          "td_maxheight": 100.0,
          "td_maxlen": 100.0,
          "td_on_pad_in_zone": true,
          "td_target_name": "td_round_shape",
          "td_width_to_size_filter_ratio": 1.0
        },
        {
          "td_allow_use_two_tracks": true,
          "td_curve_segcount": 0,
          "td_height_ratio": 1.0,
          "td_length_ratio": 1.0,
          "td_maxheight": 100.0,
          "td_maxlen": 100.0,
          "td_on_pad_in_zone": true,
          "td_target_name": "td_rect_shape",
          "td_width_to_size_filter_ratio": 1.0
        },
        {
          "td_allow_use_two_tracks": true,
          "td_curve_segcount": 0,
          "td_height_ratio": 1.0,
          "td_length_ratio": 1.0,
          "td_maxheight": 100.0,
          "td_maxlen": 100.0,
          "td_on_pad_in_zone": false,
          "td_target_name": "td_track_end",
          "td_width_to_size_filter_ratio": 1.0
        }
      ],
      "track_widths": [
        0.0,
        0.15,
        0.2,
        0.25,
        0.3,
        0.35,
        0.4,
        0.45,
        0.5,
        0.55,
        0.6,
        0.65,
        0.7,
        0.75,
        1.0,
        1.5,
        2.0
      ],
      "tuning_pattern_settings": {
        "diff_pair_defaults": {
          "corner_radius_percentage": 80,
          "corner_style": 1,
          "max_amplitude": 1.0,
          "min_amplitude": 0.2,
          "single_sided": false,
          "spacing": 1.0
        },
        "diff_pair_skew_defaults": {
          "corner_radius_percentage": 80,
          "corner_style": 1,
          "max_amplitude": 1.0,
          "min_amplitude": 0.2,
          "single_sided": false,
          "spacing": 0.6
        },
        "single_track_defaults": {
          "corner_radius_percentage": 80,
          "corner_style": 1,
          "max_amplitude": 1.0,
          "min_amplitude": 0.2,
          "single_sided": false,
          "spacing": 0.6
        }
      },
      "via_dimensions": [
        {
          "diameter": 0.0,
          "drill": 0.0
        },
        {
          "diameter": 0.5,
          "drill": 0.15
        },
        {
          "diameter": 1.0,
          "drill": 0.5
        },
        {
          "diameter": 1.0,
          "drill": 0.66
        }
      ],
      "zones_allow_external_fillets": false
    },
    "ipc2581": {
      "dist": "",
      "distpn": "",
      "internal_id": "",
      "mfg": "",
      "mpn": ""
    },
    "layer_presets": [],
    "viewports": []
  },
  "boards": [],
  "cvpcb": {
    "equivalence_files": []
  },
  "erc": {
    "erc_exclusions": [],
    "meta": {
      "version": 0
    },
    "pin_map": [
      [
        0,
        0,
        0,
        0,
        0,
        0,
        1,
        0,
        0,
        0,
        0,
        2
      ],
      [
        0,
        2,
        0,
        1,
        0,
        0,
        1,
        0,
        2,
        2,
        2,
        2
      ],
      [
        0,
        0,
        0,
        0,
        0,
        0,
        1,
        0,
        1,
        0,
        1,
        2
      ],
      [
        0,
        1,
        0,
        0,
        0,
        0,
        1,
        1,
        2,
        1,
        1,
        2
      ],
      [
        0,
        0,
        0,
        0,
        0,
        0,
        1,
        0,
        0,
        0,
        0,
        2
      ],
      [
        0,
        0,
        0,
        0,
        0,
        0,
        0,
        0,
        0,
        0,
        0,
        2
      ],
      [
        1,
        1,
        1,
        1,
        1,
        0,
        1,
        1,
        1,
        1,
        1,
        2
      ],
      [
        0,
        0,
        0,
        1,
        0,
        0,
        1,
        0,
        0,
        0,
        0,
        2
      ],
      [
        0,
        2,
        1,
        2,
        0,
        0,
        1,
        0,
        2,
        2,
        2,
        2
      ],
      [
        0,
        2,
        0,
        1,
        0,
        0,
        1,
        0,
        2,
        0,
        0,
        2
      ],
      [
        0,
        2,
        1,
        1,
        0,
        0,
        1,
        0,
        2,
        0,
        0,
        2
      ],
      [
        2,
        2,
        2,
        2,
        2,
        2,
        2,
        2,
        2,
        2,
        2,
        2
      ]
    ],
    "rule_severities": {
      "bus_definition_conflict": "error",
      "bus_entry_needed": "error",
      "bus_to_bus_conflict": "error",
      "bus_to_net_conflict": "error",
      "conflicting_netclasses": "error",
      "different_unit_footprint": "error",
      "different_unit_net": "error",
      "duplicate_reference": "error",
      "duplicate_sheet_names": "error",
      "endpoint_off_grid": "warning",
      "extra_units": "error",
      "global_label_dangling": "warning",
      "hier_label_mismatch": "error",
      "label_dangling": "error",
      "lib_symbol_issues": "warning",
      "missing_bidi_pin": "warning",
      "missing_input_pin": "warning",
      "missing_power_pin": "error",
      "missing_unit": "warning",
      "multiple_net_names": "warning",
      "net_not_bus_member": "warning",
      "no_connect_connected": "warning",
      "no_connect_dangling": "warning",
      "pin_not_connected": "error",
      "pin_not_driven": "error",
      "pin_to_pin": "warning",
      "power_pin_not_driven": "error",
      "similar_labels": "warning",
      "simulation_model_issue": "error",
      "unannotated": "error",
      "unit_value_mismatch": "error",
      "unresolved_variable": "error",
      "wire_dangling": "error"
    }
  },
  "libraries": {
    "pinned_footprint_libs": [],
    "pinned_symbol_libs": []
  },
  "meta": {
    "filename": "7PortIsolatedUSBHub.kicad_pro",
    "version": 1
  },
  "net_settings": {
    "classes": [
      {
        "bus_width": 12,
        "clearance": 0.2,
        "diff_pair_gap": 0.2,
        "diff_pair_via_gap": 0.25,
        "diff_pair_width": 0.2,
        "line_style": 0,
        "microvia_diameter": 0.5,
        "microvia_drill": 0.15,
        "name": "Default",
        "pcb_color": "rgba(0, 0, 0, 0.000)",
        "schematic_color": "rgba(0, 0, 0, 0.000)",
        "track_width": 0.2,
        "via_diameter": 1.0,
        "via_drill": 0.5,
        "wire_width": 6
      }
    ],
    "meta": {
      "version": 3
    },
    "net_colors": null,
    "netclass_assignments": null,
    "netclass_patterns": []
  },
  "pcbnew": {
    "last_paths": {
      "gencad": "",
      "idf": "",
      "netlist": "",
      "plot": "Gerber/",
      "pos_files": "Assembly files/ComponentPlacement/",
      "specctra_dsn": "",
      "step": "Assembly files/step/7PortIsolatedUSBHubV3.0.step",
      "svg": "",
      "vrml": ""
    },
    "page_layout_descr_file": ""
  },
  "schematic": {
    "annotate_start_num": 0,
    "bom_export_filename": "",
    "bom_fmt_presets": [],
    "bom_fmt_settings": {
      "field_delimiter": ",",
      "keep_line_breaks": false,
      "keep_tabs": false,
      "name": "CSV",
      "ref_delimiter": ",",
      "ref_range_delimiter": "",
      "string_delimiter": "\""
    },
    "bom_presets": [],
    "bom_settings": {
      "exclude_dnp": false,
      "fields_ordered": [
        {
          "group_by": false,
          "label": "Reference",
          "name": "Reference",
          "show": true
        },
        {
          "group_by": true,
          "label": "Value",
          "name": "Value",
          "show": true
        },
        {
          "group_by": false,
          "label": "Datasheet",
          "name": "Datasheet",
          "show": true
        },
        {
          "group_by": false,
          "label": "Footprint",
          "name": "Footprint",
          "show": true
        },
        {
          "group_by": false,
          "label": "Qty",
          "name": "${QUANTITY}",
          "show": true
        },
        {
          "group_by": true,
          "label": "DNP",
          "name": "${DNP}",
          "show": true
        }
      ],
      "filter_string": "",
      "group_symbols": true,
      "name": "Grouped By Value",
      "sort_asc": true,
      "sort_field": "Reference"
    },
    "connection_grid_size": 50.0,
    "drawing": {
      "dashed_lines_dash_length_ratio": 12.0,
      "dashed_lines_gap_length_ratio": 3.0,
      "default_line_thickness": 6.0,
      "default_text_size": 50.0,
      "field_names": [],
      "intersheets_ref_own_page": false,
      "intersheets_ref_prefix": "",
      "intersheets_ref_short": false,
      "intersheets_ref_show": false,
      "intersheets_ref_suffix": "",
      "junction_size_choice": 3,
      "label_size_ratio": 0.375,
      "operating_point_overlay_i_precision": 3,
      "operating_point_overlay_i_range": "~A",
      "operating_point_overlay_v_precision": 3,
      "operating_point_overlay_v_range": "~V",
      "overbar_offset_ratio": 1.23,
      "pin_symbol_size": 25.0,
      "text_offset_ratio": 0.15
    },
    "legacy_lib_dir": "",
    "legacy_lib_list": [],
    "meta": {
      "version": 1
    },
    "net_format_name": "",
    "page_layout_descr_file": "",
    "plot_directory": "",
    "spice_current_sheet_as_root": false,
    "spice_external_command": "spice \"%I\"",
    "spice_model_current_sheet_as_root": true,
    "spice_save_all_currents": false,
    "spice_save_all_dissipations": false,
    "spice_save_all_voltages": false,
    "subpart_first_id": 65,
    "subpart_id_separator": 0
  },
  "sheets": [
    [
      "b06b83ab-d015-41a6-a808-55bf21904ae4",
      "Root"
    ]
  ],
  "text_variables": {}
}
